<svg xmlns="http://www.w3.org/2000/svg" width="20" height="20" viewBox="0 0 20 20">
    <path fill="#0081CB" fill-rule="evenodd" d="M20 16.894v.606a2.5 2.5 0 0 1-2.5 2.5h-2.122a.626.626 0 0 0-.08-.136l-3.386-4.403L15.79 12 20 16.894zm0-1.917l-3.679-4.275a.625.625 0 0 0-.89-.059l-4.283 3.825-5.535-7.196a.625.625 0 0 0-.985-.008L0 13.08V2.5A2.5 2.5 0 0 1 2.5 0h15A2.5 2.5 0 0 1 20 2.5v12.477zM13.826 20H2.5A2.5 2.5 0 0 1 0 17.5v-2.412l5.11-6.421L13.825 20zM11.668 8.125a2.5 2.5 0 1 0 0-5 2.5 2.5 0 0 0 0 5zm0-1.25a1.25 1.25 0 1 1 0-2.5 1.25 1.25 0 0 1 0 2.5z"/>
</svg>
