<svg xmlns="http://www.w3.org/2000/svg" width="20" height="20" viewBox="0 0 20 20">
    <path fill="#B6B6B6" fill-rule="evenodd" d="M2.5 0h15A2.5 2.5 0 0 1 20 2.5v15a2.5 2.5 0 0 1-2.5 2.5h-15A2.5 2.5 0 0 1 0 17.5v-15A2.5 2.5 0 0 1 2.5 0zM10 2v2h2V2h-2zM8 4v2h2V4H8zm2 2v2h2V6h-2zM8 8v2h2V8H8zm2 2v2h2v-2h-2zm-2 6v1h2v-1H8zm0-4v3h2v-3H8z"/>
</svg>
