<?xml version="1.0" standalone="no"?>
<!DOCTYPE svg PUBLIC "-//W3C//DTD SVG 1.1//EN" "http://www.w3.org/Graphics/SVG/1.1/DTD/svg11.dtd" >
<svg xmlns="http://www.w3.org/2000/svg">
<metadata>Generated by IcoMoon</metadata>
<defs>
<font id="icomoon" horiz-adv-x="1024">
<font-face units-per-em="1024" ascent="960" descent="-64" />
<missing-glyph horiz-adv-x="1024" />
<glyph unicode="&#x20;" horiz-adv-x="512" d="" />
<glyph unicode="&#xe900;" glyph-name="document" horiz-adv-x="1002" d="M885.39 960l66.843-568.56-75.035-8.846-59.697 507.773h-632.788l-59.697-507.773-75.057 8.824 66.865 568.581h768.566zM246.588 832.675h509.059v-63.662h-509.081v63.662zM246.588 705.329h509.059v-63.662h-509.081v63.662zM246.588 578.004h509.059v-63.662h-509.081v63.662zM246.588 450.68h509.059v-63.662h-509.081v63.662zM978.356 323.355h-954.499c-17.495 0-27.278-13.595-21.744-30.197l107.128-321.601c5.534-16.602 24.402-30.197 41.897-30.197h699.937c17.517 0 36.341 13.595 41.897 30.197l107.128 321.58c5.534 16.624-4.249 30.219-21.744 30.219zM628.344 196.009h-254.475v63.684h254.475v-63.684z" />
<glyph unicode="&#xe901;" glyph-name="favorite" horiz-adv-x="1249" d="M1133.193 877.006c-119.983 110.642-314.493 110.642-434.501 0l-81.47-75.102-81.495 75.102c-119.958 110.642-314.493 110.642-434.501 0-134.968-124.478-134.968-326.281 0-450.76l515.996-475.835 515.996 475.81c134.968 124.503 134.968 326.306 0 450.81z" />
<glyph unicode="&#xe902;" glyph-name="recent" d="M1024 661.333l-512.085 298.667-511.915-298.667 511.915-298.667 512.085 298.667zM511.915 50.56l-413.739 241.408-98.176-57.301 511.915-298.667 512.085 298.667-98.219 57.259-413.867-241.365zM925.781 505.259l98.219-57.259-512.085-298.667-511.915 298.667 98.176 57.259 413.739-241.408 413.867 241.408z" />
<glyph unicode="&#xe903;" glyph-name="activity" horiz-adv-x="1115" d="M1111.859 524.914c-3.96 7.741-11.88 12.949-21.016 12.949-0.076 0-0.151 0-0.226-0.001h-69.347c-44.123 229.808-254.339 404.503-506.288 404.503-283.944 0-514.981-221.798-514.981-494.387s231.014-494.364 514.981-494.364c183.25 0 354.167 94.686 446.009 247.057 12.948 21.504 5.325 48.97-17.112 61.417-22.369 12.447-51.018 5.12-63.943-16.384-75.162-124.723-215.040-202.229-364.954-202.229-232.334 0-421.342 181.453-421.342 404.457 0 223.050 189.030 404.503 421.342 404.503 200.112 0 367.775-134.736 410.487-314.596h-68.836c-9.125 0-17.362-5.052-21.254-12.948-1.394-2.785-2.209-6.068-2.209-9.542 0-5.524 2.063-10.565 5.46-14.397l-0.020 0.023 117.055-134.827c4.46-5.12 11.014-8.078 17.977-8.078s13.54 2.981 17.977 8.078l117.055 134.827c3.359 3.81 5.41 8.844 5.41 14.357 0 3.489-0.821 6.786-2.281 9.708l0.057-0.126zM514.981 829.998c-25.85 0-46.808-20.116-46.808-44.942v-272.703c-21.163-14.245-35.112-37.729-35.112-64.398 0-43.372 36.773-78.666 81.943-78.666 12.379 0 24.053 2.844 34.566 7.6l162.839-90.226c7.396-4.119 15.406-6.053 23.37-6.053 16.156 0 31.903 8.055 40.596 22.482 12.902 21.458 5.257 48.97-17.158 61.372l-163.021 90.362c-2.313 24.059-15.288 44.678-34.082 57.304l-0.279 0.176v272.748c-0.023 24.804-21.003 44.942-46.854 44.942zM514.981 414.276c-19.342 0-35.089 15.132-35.089 33.678 0 18.569 15.747 33.701 35.089 33.701s35.112-15.132 35.112-33.701c0-18.546-15.77-33.678-35.112-33.678z" />
</font></defs></svg>